…
# Copy data to spark (and keep connection to it)
d_tbl <- copy_to(sc, d)

# Do CUPED adjustment per experiment in Spark
cuped_results <- d_tbl %>%
  group_by(exp_id) %>%
  mutate(cuped_metric = metric - (covariate - mean(covariate)) * cov(metric, covariate)/var(covariate)) %>% 
  mutate(cuped_metric = coalesce(cuped_metric, metric))

# Collect results into local memory
d <- collect(cuped_results)

d
#> # A tibble: 30,000 x 6
#> # Groups:   exp_id [3]
#>    exp_id user_id   group   covariate     metric cuped_metric
#>     <int>   <int>   <chr>       <dbl>      <dbl>        <dbl>
#>  1      2       1 variant         NaN -0.1375437  -0.13754373
#>  2      2       2 variant  0.13242509  1.3755324   1.24621238
#>  3      2       3    base  1.96319126  1.6714552  -0.28382946
#>  4      2       4    base  0.44404116  0.3664763  -0.07364255
#>  5      2       5 variant  0.02134668  0.9870520   0.96851903
#>  6      2       6 variant         NaN  1.2720197   1.27201966
#>  7      2       7    base -0.35044885 -0.2419659   0.11032162
#>  8      2       8 variant         NaN -0.8750044  -0.87500437
#>  9      2       9 variant  0.81343645  1.3115542   0.50300887
#> 10      2      10 variant -0.18234841  0.6818743   0.86650225
#> # ... with 29,990 more rows
…
